<?xml version="1.0"?>
<svg xmlns="http://www.w3.org/2000/svg" xmlns:xlink="http://www.w3.org/1999/xlink" xmlns:svgjs="http://svgjs.com/svgjs" version="1.1" width="512" height="512" x="0" y="0" viewBox="0 0 512.001 512.001" style="enable-background:new 0 0 512 512" xml:space="preserve" class=""><g>
<path xmlns="http://www.w3.org/2000/svg" style="" d="M481.53,347.033l30.015-191.649c3.121-19.448-10.112-37.747-29.561-40.877l0,0L76.973,49.501  C57.525,46.38,39.227,59.613,36.106,79.061l-14.392,89.627v177.23L481.53,347.033z" fill="#358883" data-original="#146aa8" class=""/>
<path xmlns="http://www.w3.org/2000/svg" style="" d="M481.985,114.507L366.953,96.049C289.694,214.264,164.799,296.142,69.019,346.034l412.511,0.999  l30.015-191.649C514.666,135.935,501.433,117.637,481.985,114.507L481.985,114.507z" fill="#358883" data-original="#126099" class=""/>
<path xmlns="http://www.w3.org/2000/svg" style="" d="M35.669,159.771h410.192c19.698,0,35.669,15.971,35.669,35.669v231.848  c0,19.698-15.971,35.669-35.669,35.669H35.669C15.971,462.956,0,446.986,0,427.288V195.44C0,175.742,15.971,159.771,35.669,159.771z  " fill="#4cc3b5" data-original="#4398d1" class=""/>
<path xmlns="http://www.w3.org/2000/svg" style="" d="M445.861,159.771h-7.134c-84.179,149.444-241.469,251.956-337.49,303.185h344.624  c19.698,0,35.669-15.971,35.669-35.669V195.44C481.53,175.742,465.559,159.771,445.861,159.771z" fill="#ffffff" data-original="#3e8cc7" class=""/>
<rect xmlns="http://www.w3.org/2000/svg" x="44.586" y="204.357" style="" width="89.172" height="71.338" fill="#fdb62f" data-original="#fdb62f" class=""/>
<g xmlns="http://www.w3.org/2000/svg">
	<rect x="44.586" y="231.109" style="" width="26.752" height="17.834" fill="#fd7b2f" data-original="#fd7b2f" class=""/>
	<rect x="107.007" y="231.109" style="" width="26.752" height="17.834" fill="#fd7b2f" data-original="#fd7b2f" class=""/>
</g>
<circle xmlns="http://www.w3.org/2000/svg" style="" cx="392.358" cy="373.784" r="44.586" fill="#fdb62f" data-original="#fdb62f" class=""/>
<circle xmlns="http://www.w3.org/2000/svg" style="" cx="338.854" cy="373.784" r="44.586" fill="#de4c3c" data-original="#de4c3c" class=""/>
<g xmlns="http://www.w3.org/2000/svg">
	<rect x="35.669" y="338.115" style="" width="53.503" height="17.834" fill="#000000" data-original="#87ced9" class=""/>
	<rect x="124.841" y="338.115" style="" width="53.503" height="17.834" fill="#000000" data-original="#87ced9" class=""/>
	<rect x="214.013" y="338.115" style="" width="53.503" height="17.834" fill="#000000" data-original="#87ced9" class=""/>
	<rect x="35.669" y="391.619" style="" width="231.848" height="17.834" fill="#000000" data-original="#87ced9" class=""/>
	<rect x="312.103" y="204.357" style="" width="17.834" height="35.669" fill="#000000" data-original="#87ced9" class=""/>
	<rect x="347.772" y="204.357" style="" width="17.834" height="35.669" fill="#000000" data-original="#87ced9" class=""/>
	<rect x="383.44" y="204.357" style="" width="17.834" height="35.669" fill="#000000" data-original="#87ced9" class=""/>
	<rect x="419.109" y="204.357" style="" width="17.834" height="35.669" fill="#000000" data-original="#87ced9" class=""/>
</g>
<g xmlns="http://www.w3.org/2000/svg">
</g>
<g xmlns="http://www.w3.org/2000/svg">
</g>
<g xmlns="http://www.w3.org/2000/svg">
</g>
<g xmlns="http://www.w3.org/2000/svg">
</g>
<g xmlns="http://www.w3.org/2000/svg">
</g>
<g xmlns="http://www.w3.org/2000/svg">
</g>
<g xmlns="http://www.w3.org/2000/svg">
</g>
<g xmlns="http://www.w3.org/2000/svg">
</g>
<g xmlns="http://www.w3.org/2000/svg">
</g>
<g xmlns="http://www.w3.org/2000/svg">
</g>
<g xmlns="http://www.w3.org/2000/svg">
</g>
<g xmlns="http://www.w3.org/2000/svg">
</g>
<g xmlns="http://www.w3.org/2000/svg">
</g>
<g xmlns="http://www.w3.org/2000/svg">
</g>
<g xmlns="http://www.w3.org/2000/svg">
</g>
</g></svg>
